worminfo • worminfo
…
name: WormBase name:

gene("WBGene00004804", format = "gene")
gene("T19E7.2", format = "sequence")
gene("skn-1", format = "name")

All 3 of these queries return the same result:

See how these queries all return the same tibble data.frame, but with different sorting.

You can also return all genes in a named class. For example, let’s get the current list of daf (Dauer Arrest Forming) genes:

gene("daf", format = "class")

## # A tibble: 34 × 3
##      name           gene sequence
##     <chr>          <chr>    <chr>
## 1   daf-1 WBGene00000897  F29C4.1
## 2   daf-2 WBGene00000898 Y55D5A.5
## 3   daf-3 WBGene00000899  F25E2.5
## 4   daf-4 WBGene00000900  C05D2.1
## 5   daf-5 WBGene00000901  W01G7.1
## 6   daf-6 WBGene00000902  F31F6.5
## 7   daf-7 WBGene00000903  B0412.2
## 8   daf-8 WBGene00000904 R05D11.1
## 9   daf-9 WBGene00000905  T13C5.1
## 10 daf-10 WBGene00000906  F23B2.4
## # ... with 24 more rows
…
